<?xml version="1.0" encoding="UTF-8" standalone="no"?>
<svg width="20px" height="20px" viewBox="0 0 20 20" version="1.1" xmlns="http://www.w3.org/2000/svg" xmlns:xlink="http://www.w3.org/1999/xlink">
    <!-- Generator: Sketch 42 (36781) - http://www.bohemiancoding.com/sketch -->
    <title>Shape</title>
    <desc>Created with Sketch.</desc>
    <defs></defs>
    <g id="Page-1" stroke="none" stroke-width="1" fill="none" fill-rule="evenodd">
        <path d="M15.71,7.33 C16.19,6.93 16.75,6.45 17,5.92 C16.59,6.13 16.1,6.26 15.56,6.33 C16.06,5.97 16.47,5.5 16.68,4.86 C16.16,5.14 15.63,5.38 14.97,5.5 C13.42,3.63 9.71,5.15 10.37,7.95 C7.76,7.79 6.17,6.61 4.85,5.16 C4.1,6.38 4.75,8.23 5.64,8.74 C5.18,8.71 4.83,8.57 4.5,8.41 C4.54,9.95 5.39,10.69 6.58,11.09 C6.22,11.16 5.82,11.18 5.44,11.12 C5.81,12.19 6.58,12.86 7.9,13 C7,13.76 5.34,14.29 4,14.08 C5.15,14.81 6.46,15.39 8.28,15.31 C12.69,15.11 15.64,11.95 15.71,7.33 L15.71,7.33 Z M10,0 C12.6521649,-2.22044605e-16 15.195704,1.0535684 17.0710678,2.92893219 C18.9464316,4.80429597 20,7.3478351 20,10 C20,15.5228475 15.5228475,20 10,20 C7.3478351,20 4.80429597,18.9464316 2.92893219,17.0710678 C1.0535684,15.195704 -2.22044605e-16,12.6521649 -4.4408921e-16,10 C-1.77635684e-15,7.3478351 1.0535684,4.80429597 2.92893219,2.92893219 C4.80429597,1.0535684 7.3478351,0 10,-4.4408921e-16 L10,0 Z" id="Shape" fill="#FC9827" fill-rule="nonzero"></path>
    </g>
</svg>